[gd_scene load_steps=5 format=2]

[ext_resource path="res://effect/glitch/Glitch.shader" type="Shader" id=1]
[ext_resource path="res://effect/glitch/Glitch.gd" type="Script" id=2]
[ext_resource path="res://effect/glitch/interference.wav" type="AudioStream" id=3]

[sub_resource type="ShaderMaterial" id=1]
shader = ExtResource( 1 )
shader_param/range = 0.05
shader_param/noiseQuality = 250.0
shader_param/noiseIntensity = 0.0088
shader_param/offsetIntensity = 0.02
shader_param/colorOffsetIntensity = 1.3

[node name="Glitch" type="ColorRect"]
material = SubResource( 1 )
anchor_right = 1.0
anchor_bottom = 1.0
mouse_filter = 2
script = ExtResource( 2 )
__meta__ = {
"_edit_use_anchors_": false
}

[node name="Interference" type="AudioStreamPlayer" parent="."]
stream = ExtResource( 3 )
bus = "SFX"
[connection signal="visibility_changed" from="." to="." method="_on_Glitch_visibility_changed"]
