[gd_scene load_steps=4 format=2]

[ext_resource path="res://Main.gd" type="Script" id=1]
[ext_resource path="res://effect/transition/Transition.tscn" type="PackedScene" id=2]
[ext_resource path="res://effect/monochrome/Monochrome.tscn" type="PackedScene" id=3]

[node name="Main" type="Node"]
script = ExtResource( 1 )
first_scene = "res://scenes/splash/Splash.tscn"

[node name="Scene" type="Node" parent="."]

[node name="TopLevel" type="CanvasLayer" parent="."]
layer = 99

[node name="Transition" parent="TopLevel" instance=ExtResource( 2 )]

[node name="Monochrome" parent="TopLevel" instance=ExtResource( 3 )]
visible = false
