[gd_scene load_steps=3 format=2]

[ext_resource path="res://interface/Theme.tres" type="Theme" id=1]
[ext_resource path="res://scenes/splash/Splash.gd" type="Script" id=2]

[node name="Splash" type="Panel"]
anchor_right = 1.0
anchor_bottom = 1.0
theme = ExtResource( 1 )
script = ExtResource( 2 )

[node name="CenterContainer" type="CenterContainer" parent="."]
anchor_right = 1.0
anchor_bottom = 1.0

[node name="VBoxContainer" type="VBoxContainer" parent="CenterContainer"]
margin_left = 25.0
margin_top = 141.0
margin_right = 155.0
margin_bottom = 179.0

[node name="Jam" type="Label" parent="CenterContainer/VBoxContainer"]
margin_right = 130.0
margin_bottom = 13.0
text = "Created for Godot Wild Jam XVII"
align = 1

[node name="HSeparator" type="HSeparator" parent="CenterContainer/VBoxContainer"]
margin_top = 17.0
margin_right = 130.0
margin_bottom = 21.0

[node name="Creator" type="Label" parent="CenterContainer/VBoxContainer"]
margin_top = 25.0
margin_right = 130.0
margin_bottom = 38.0
text = "a game by bsvercl"
align = 1

[node name="Tween" type="Tween" parent="."]

[node name="Timer" type="Timer" parent="."]
wait_time = 3.0
autostart = true
[connection signal="timeout" from="Timer" to="." method="_on_Timer_timeout"]
