[gd_scene load_steps=5 format=2]

[ext_resource path="res://effect/transition/Transition.shader" type="Shader" id=1]
[ext_resource path="res://effect/transition/mask.png" type="Texture" id=2]
[ext_resource path="res://effect/transition/Transition.gd" type="Script" id=3]

[sub_resource type="ShaderMaterial" id=1]
shader = ExtResource( 1 )
shader_param/cutoff = 0.0
shader_param/smooth_size = 0.5
shader_param/color = Color( 0.482353, 0.32549, 0.678431, 1 )
shader_param/mask = ExtResource( 2 )

[node name="Transition" type="ColorRect"]
material = SubResource( 1 )
anchor_right = 1.0
anchor_bottom = 1.0
mouse_filter = 2
color = Color( 0, 0, 0, 1 )
script = ExtResource( 3 )
__meta__ = {
"_edit_use_anchors_": false
}

[node name="Tween" type="Tween" parent="."]
