[gd_resource type="AnimatedTexture" load_steps=3 format=2]

[ext_resource path="res://actor/player/shield/shield-0.png" type="Texture" id=1]
[ext_resource path="res://actor/player/shield/shield-1.png" type="Texture" id=2]

[resource]
frames = 2
fps = 2.0
frame_0/texture = ExtResource( 1 )
frame_1/texture = ExtResource( 2 )
frame_1/delay_sec = 0.0
