[gd_scene load_steps=6 format=2]

[ext_resource path="res://effect/explosion/explosion.png" type="Texture" id=1]
[ext_resource path="res://effect/explosion/Explosion.gd" type="Script" id=2]
[ext_resource path="res://effect/explosion/boom.wav" type="AudioStream" id=3]

[sub_resource type="AudioStreamRandomPitch" id=1]
audio_stream = ExtResource( 3 )

[sub_resource type="Animation" id=2]
length = 0.8
tracks/0/type = "value"
tracks/0/path = NodePath(".:frame")
tracks/0/interp = 1
tracks/0/loop_wrap = true
tracks/0/imported = false
tracks/0/enabled = true
tracks/0/keys = {
"times": PoolRealArray( 0, 0.2, 0.4, 0.6 ),
"transitions": PoolRealArray( 1, 1, 1, 1 ),
"update": 1,
"values": [ 0, 1, 2, 3 ]
}

[node name="Explosion" type="Sprite"]
texture = ExtResource( 1 )
hframes = 4
script = ExtResource( 2 )

[node name="Explode" type="AudioStreamPlayer" parent="."]
stream = SubResource( 1 )
autoplay = true
bus = "SFX"

[node name="AnimationPlayer" type="AnimationPlayer" parent="."]
autoplay = "explode"
anims/explode = SubResource( 2 )
[connection signal="finished" from="Explode" to="." method="_on_Explode_finished"]
[connection signal="animation_finished" from="AnimationPlayer" to="." method="_on_AnimationPlayer_animation_finished"]
